Traceback (most recent call last):
  File "app.py", line 18, in <module>
    from bots import TeamsTaskModuleBot
  File "/var/www/webapp/tom/test/teams-task-module/bots/__init__.py", line 4, in <module>
    from .teams_task_module_bot import TeamsTaskModuleBot
  File "/var/www/webapp/tom/test/teams-task-module/bots/teams_task_module_bot.py", line 82
    "task": {
          ^
SyntaxError: invalid syntax
======== Running on http://localhost:7000 ========
(Press CTRL+C to quit)
unhandled exception during asyncio.run() shutdown
task: <Task finished name='Task-1' coro=<_run_app() done, defined at /var/www/webapp/tom/test/teams-task-module/.venv_test/lib/python3.8/site-packages/aiohttp/web.py:287> exception=OSError(98, "error while attempting to bind on address ('127.0.0.1', 7000): address already in use")>
Traceback (most recent call last):
  File "/var/www/webapp/tom/test/teams-task-module/.venv_test/lib/python3.8/site-packages/aiohttp/web.py", line 508, in run_app
    loop.run_until_complete(main_task)
  File "/root/anaconda3/lib/python3.8/asyncio/base_events.py", line 616, in run_until_complete
    return future.result()
  File "/var/www/webapp/tom/test/teams-task-module/.venv_test/lib/python3.8/site-packages/aiohttp/web.py", line 411, in _run_app
    await site.start()
  File "/var/www/webapp/tom/test/teams-task-module/.venv_test/lib/python3.8/site-packages/aiohttp/web_runner.py", line 121, in start
    self._server = await loop.create_server(
  File "/root/anaconda3/lib/python3.8/asyncio/base_events.py", line 1463, in create_server
    raise OSError(err.errno, 'error while attempting '
OSError: [Errno 98] error while attempting to bind on address ('127.0.0.1', 7000): address already in use
Traceback (most recent call last):
  File "app.py", line 88, in <module>
    raise error
  File "app.py", line 86, in <module>
    web.run_app(APP, host="localhost", port=CONFIG.PORT)
  File "/var/www/webapp/tom/test/teams-task-module/.venv_test/lib/python3.8/site-packages/aiohttp/web.py", line 508, in run_app
    loop.run_until_complete(main_task)
  File "/root/anaconda3/lib/python3.8/asyncio/base_events.py", line 616, in run_until_complete
    return future.result()
  File "/var/www/webapp/tom/test/teams-task-module/.venv_test/lib/python3.8/site-packages/aiohttp/web.py", line 411, in _run_app
    await site.start()
  File "/var/www/webapp/tom/test/teams-task-module/.venv_test/lib/python3.8/site-packages/aiohttp/web_runner.py", line 121, in start
    self._server = await loop.create_server(
  File "/root/anaconda3/lib/python3.8/asyncio/base_events.py", line 1463, in create_server
    raise OSError(err.errno, 'error while attempting '
OSError: [Errno 98] error while attempting to bind on address ('127.0.0.1', 7000): address already in use

 [on_turn_error] unhandled error: __init__() takes 1 positional argument but 2 were given
Traceback (most recent call last):
  File "/var/www/webapp/tom/test/teams-task-module/.venv_test/lib/python3.8/site-packages/botbuilder/core/bot_adapter.py", line 128, in run_pipeline
    return await self._middleware.receive_activity_with_status(
  File "/var/www/webapp/tom/test/teams-task-module/.venv_test/lib/python3.8/site-packages/botbuilder/core/middleware_set.py", line 69, in receive_activity_with_status
    return await self.receive_activity_internal(context, callback)
  File "/var/www/webapp/tom/test/teams-task-module/.venv_test/lib/python3.8/site-packages/botbuilder/core/middleware_set.py", line 79, in receive_activity_internal
    return await callback(context)
  File "/var/www/webapp/tom/test/teams-task-module/.venv_test/lib/python3.8/site-packages/botbuilder/core/activity_handler.py", line 70, in on_turn
    await self.on_message_activity(turn_context)
  File "/var/www/webapp/tom/test/teams-task-module/bots/teams_task_module_bot.py", line 51, in on_message_activity
    reply.attachments.append(self.__get_task_module_hero_card_options())
  File "/var/www/webapp/tom/test/teams-task-module/bots/teams_task_module_bot.py", line 166, in __get_task_module_hero_card_options
    card = HeroCard({
TypeError: __init__() takes 1 positional argument but 2 were given
======== Running on http://localhost:7000 ========
(Press CTRL+C to quit)

 [on_turn_error] unhandled error: __init__() takes 1 positional argument but 2 were given
Traceback (most recent call last):
  File "/var/www/webapp/tom/test/teams-task-module/.venv_test/lib/python3.8/site-packages/botbuilder/core/bot_adapter.py", line 128, in run_pipeline
    return await self._middleware.receive_activity_with_status(
  File "/var/www/webapp/tom/test/teams-task-module/.venv_test/lib/python3.8/site-packages/botbuilder/core/middleware_set.py", line 69, in receive_activity_with_status
    return await self.receive_activity_internal(context, callback)
  File "/var/www/webapp/tom/test/teams-task-module/.venv_test/lib/python3.8/site-packages/botbuilder/core/middleware_set.py", line 79, in receive_activity_internal
    return await callback(context)
  File "/var/www/webapp/tom/test/teams-task-module/.venv_test/lib/python3.8/site-packages/botbuilder/core/activity_handler.py", line 70, in on_turn
    await self.on_message_activity(turn_context)
  File "/var/www/webapp/tom/test/teams-task-module/bots/teams_task_module_bot.py", line 51, in on_message_activity
    reply.attachments.append(self.__get_task_module_hero_card_options())
  File "/var/www/webapp/tom/test/teams-task-module/bots/teams_task_module_bot.py", line 166, in __get_task_module_hero_card_options
    card = HeroCard({
TypeError: __init__() takes 1 positional argument but 2 were given

 [on_turn_error] unhandled error: __init__() takes 1 positional argument but 2 were given
Traceback (most recent call last):
  File "/var/www/webapp/tom/test/teams-task-module/.venv_test/lib/python3.8/site-packages/botbuilder/core/bot_adapter.py", line 128, in run_pipeline
    return await self._middleware.receive_activity_with_status(
  File "/var/www/webapp/tom/test/teams-task-module/.venv_test/lib/python3.8/site-packages/botbuilder/core/middleware_set.py", line 69, in receive_activity_with_status
    return await self.receive_activity_internal(context, callback)
  File "/var/www/webapp/tom/test/teams-task-module/.venv_test/lib/python3.8/site-packages/botbuilder/core/middleware_set.py", line 79, in receive_activity_internal
    return await callback(context)
  File "/var/www/webapp/tom/test/teams-task-module/.venv_test/lib/python3.8/site-packages/botbuilder/core/activity_handler.py", line 70, in on_turn
    await self.on_message_activity(turn_context)
  File "/var/www/webapp/tom/test/teams-task-module/bots/teams_task_module_bot.py", line 51, in on_message_activity
    reply.attachments.append(self.__get_task_module_hero_card_options())
  File "/var/www/webapp/tom/test/teams-task-module/bots/teams_task_module_bot.py", line 166, in __get_task_module_hero_card_options
    card = HeroCard({
TypeError: __init__() takes 1 positional argument but 2 were given
======== Running on http://localhost:7000 ========
(Press CTRL+C to quit)
type is not a known attribute of class <class 'botbuilder.schema._models_py3.HeroCard'> and will be ignored
value is not a known attribute of class <class 'botbuilder.schema._models_py3.HeroCard'> and will be ignored
type is not a known attribute of class <class 'botbuilder.schema._models_py3.HeroCard'> and will be ignored
value is not a known attribute of class <class 'botbuilder.schema._models_py3.HeroCard'> and will be ignored
unhandled exception during asyncio.run() shutdown
task: <Task finished name='Task-1' coro=<_run_app() done, defined at /var/www/webapp/tom/test/teams-task-module/.venv_test/lib/python3.8/site-packages/aiohttp/web.py:287> exception=OSError(98, "error while attempting to bind on address ('127.0.0.1', 7000): address already in use")>
Traceback (most recent call last):
  File "/var/www/webapp/tom/test/teams-task-module/.venv_test/lib/python3.8/site-packages/aiohttp/web.py", line 508, in run_app
    loop.run_until_complete(main_task)
  File "/root/anaconda3/lib/python3.8/asyncio/base_events.py", line 616, in run_until_complete
    return future.result()
  File "/var/www/webapp/tom/test/teams-task-module/.venv_test/lib/python3.8/site-packages/aiohttp/web.py", line 411, in _run_app
    await site.start()
  File "/var/www/webapp/tom/test/teams-task-module/.venv_test/lib/python3.8/site-packages/aiohttp/web_runner.py", line 121, in start
    self._server = await loop.create_server(
  File "/root/anaconda3/lib/python3.8/asyncio/base_events.py", line 1463, in create_server
    raise OSError(err.errno, 'error while attempting '
OSError: [Errno 98] error while attempting to bind on address ('127.0.0.1', 7000): address already in use
Traceback (most recent call last):
  File "app.py", line 88, in <module>
    raise error
  File "app.py", line 86, in <module>
    web.run_app(APP, host="localhost", port=CONFIG.PORT)
  File "/var/www/webapp/tom/test/teams-task-module/.venv_test/lib/python3.8/site-packages/aiohttp/web.py", line 508, in run_app
    loop.run_until_complete(main_task)
  File "/root/anaconda3/lib/python3.8/asyncio/base_events.py", line 616, in run_until_complete
    return future.result()
  File "/var/www/webapp/tom/test/teams-task-module/.venv_test/lib/python3.8/site-packages/aiohttp/web.py", line 411, in _run_app
    await site.start()
  File "/var/www/webapp/tom/test/teams-task-module/.venv_test/lib/python3.8/site-packages/aiohttp/web_runner.py", line 121, in start
    self._server = await loop.create_server(
  File "/root/anaconda3/lib/python3.8/asyncio/base_events.py", line 1463, in create_server
    raise OSError(err.errno, 'error while attempting '
OSError: [Errno 98] error while attempting to bind on address ('127.0.0.1', 7000): address already in use
======== Running on http://localhost:7000 ========
(Press CTRL+C to quit)
======== Running on http://localhost:7000 ========
(Press CTRL+C to quit)
Traceback (most recent call last):
  File "app.py", line 9, in <module>
    from aiohttp import web
ModuleNotFoundError: No module named 'aiohttp'
======== Running on http://localhost:7000 ========
(Press CTRL+C to quit)
======== Running on http://localhost:7000 ========
(Press CTRL+C to quit)
======== Running on http://localhost:7000 ========
(Press CTRL+C to quit)
======== Running on http://localhost:7000 ========
(Press CTRL+C to quit)
unhandled exception during asyncio.run() shutdown
task: <Task finished name='Task-1' coro=<_run_app() done, defined at /var/www/webapp/tom/test/teams-task-module/.venv_test/lib/python3.8/site-packages/aiohttp/web.py:287> exception=OSError(98, "error while attempting to bind on address ('127.0.0.1', 7000): address already in use")>
Traceback (most recent call last):
  File "/var/www/webapp/tom/test/teams-task-module/.venv_test/lib/python3.8/site-packages/aiohttp/web.py", line 508, in run_app
    loop.run_until_complete(main_task)
  File "/root/anaconda3/lib/python3.8/asyncio/base_events.py", line 616, in run_until_complete
    return future.result()
  File "/var/www/webapp/tom/test/teams-task-module/.venv_test/lib/python3.8/site-packages/aiohttp/web.py", line 411, in _run_app
    await site.start()
  File "/var/www/webapp/tom/test/teams-task-module/.venv_test/lib/python3.8/site-packages/aiohttp/web_runner.py", line 121, in start
    self._server = await loop.create_server(
  File "/root/anaconda3/lib/python3.8/asyncio/base_events.py", line 1463, in create_server
    raise OSError(err.errno, 'error while attempting '
OSError: [Errno 98] error while attempting to bind on address ('127.0.0.1', 7000): address already in use
Traceback (most recent call last):
  File "app.py", line 88, in <module>
    raise error
  File "app.py", line 86, in <module>
    web.run_app(APP, host="localhost", port=CONFIG.PORT)
  File "/var/www/webapp/tom/test/teams-task-module/.venv_test/lib/python3.8/site-packages/aiohttp/web.py", line 508, in run_app
    loop.run_until_complete(main_task)
  File "/root/anaconda3/lib/python3.8/asyncio/base_events.py", line 616, in run_until_complete
    return future.result()
  File "/var/www/webapp/tom/test/teams-task-module/.venv_test/lib/python3.8/site-packages/aiohttp/web.py", line 411, in _run_app
    await site.start()
  File "/var/www/webapp/tom/test/teams-task-module/.venv_test/lib/python3.8/site-packages/aiohttp/web_runner.py", line 121, in start
    self._server = await loop.create_server(
  File "/root/anaconda3/lib/python3.8/asyncio/base_events.py", line 1463, in create_server
    raise OSError(err.errno, 'error while attempting '
OSError: [Errno 98] error while attempting to bind on address ('127.0.0.1', 7000): address already in use
unhandled exception during asyncio.run() shutdown
task: <Task finished name='Task-1' coro=<_run_app() done, defined at /var/www/webapp/tom/test/teams-task-module/.venv_test/lib/python3.8/site-packages/aiohttp/web.py:287> exception=OSError(98, "error while attempting to bind on address ('127.0.0.1', 7000): address already in use")>
Traceback (most recent call last):
  File "/var/www/webapp/tom/test/teams-task-module/.venv_test/lib/python3.8/site-packages/aiohttp/web.py", line 508, in run_app
    loop.run_until_complete(main_task)
  File "/root/anaconda3/lib/python3.8/asyncio/base_events.py", line 616, in run_until_complete
    return future.result()
  File "/var/www/webapp/tom/test/teams-task-module/.venv_test/lib/python3.8/site-packages/aiohttp/web.py", line 411, in _run_app
    await site.start()
  File "/var/www/webapp/tom/test/teams-task-module/.venv_test/lib/python3.8/site-packages/aiohttp/web_runner.py", line 121, in start
    self._server = await loop.create_server(
  File "/root/anaconda3/lib/python3.8/asyncio/base_events.py", line 1463, in create_server
    raise OSError(err.errno, 'error while attempting '
OSError: [Errno 98] error while attempting to bind on address ('127.0.0.1', 7000): address already in use
Traceback (most recent call last):
  File "app.py", line 88, in <module>
    raise error
  File "app.py", line 86, in <module>
    web.run_app(APP, host="localhost", port=CONFIG.PORT)
  File "/var/www/webapp/tom/test/teams-task-module/.venv_test/lib/python3.8/site-packages/aiohttp/web.py", line 508, in run_app
    loop.run_until_complete(main_task)
  File "/root/anaconda3/lib/python3.8/asyncio/base_events.py", line 616, in run_until_complete
    return future.result()
  File "/var/www/webapp/tom/test/teams-task-module/.venv_test/lib/python3.8/site-packages/aiohttp/web.py", line 411, in _run_app
    await site.start()
  File "/var/www/webapp/tom/test/teams-task-module/.venv_test/lib/python3.8/site-packages/aiohttp/web_runner.py", line 121, in start
    self._server = await loop.create_server(
  File "/root/anaconda3/lib/python3.8/asyncio/base_events.py", line 1463, in create_server
    raise OSError(err.errno, 'error while attempting '
OSError: [Errno 98] error while attempting to bind on address ('127.0.0.1', 7000): address already in use
